<svg width="18" height="18" viewBox="0 0 18 18" fill="none" xmlns="http://www.w3.org/2000/svg">
<path d="M16.5 12.69V14.94C16.5008 15.1489 16.4581 15.3556 16.3744 15.547C16.2907 15.7384 16.168 15.9102 16.0141 16.0514C15.8601 16.1926 15.6784 16.3001 15.4806 16.367C15.2827 16.434 15.073 16.4588 14.865 16.44C12.5571 16.1892 10.3402 15.4006 8.39249 14.1375C6.58037 12.986 5.044 11.4496 3.8925 9.63751C2.62498 7.68091 1.83618 5.45326 1.59 3.13501C1.57125 2.92761 1.5959 2.71858 1.66237 2.52123C1.72884 2.32388 1.83567 2.14253 1.97607 1.98873C2.11647 1.83493 2.28735 1.71204 2.47784 1.6279C2.66833 1.54376 2.87425 1.50021 3.0825 1.50001H5.3325C5.69647 1.49643 6.04934 1.62532 6.32532 1.86266C6.60129 2.1 6.78155 2.4296 6.83249 2.79001C6.92746 3.51006 7.10358 4.21706 7.3575 4.89751C7.4584 5.16595 7.48024 5.4577 7.42042 5.73817C7.36061 6.01865 7.22164 6.27609 7.01999 6.48001L6.0675 7.43251C7.13516 9.31017 8.68984 10.8648 10.5675 11.9325L11.52 10.98C11.7239 10.7784 11.9814 10.6394 12.2618 10.5796C12.5423 10.5198 12.8341 10.5416 13.1025 10.6425C13.7829 10.8964 14.4899 11.0725 15.21 11.1675C15.5743 11.2189 15.907 11.4024 16.1449 11.6831C16.3827 11.9638 16.5091 12.3222 16.5 12.69Z" stroke="white" stroke-width="2" stroke-linecap="round" stroke-linejoin="round"/>
</svg>
