<svg width="152" height="142" viewBox="0 0 152 142" fill="none" xmlns="http://www.w3.org/2000/svg">
<path d="M133.125 81.6369C130.66 65.2331 125.312 57.1894 125.044 56.7865C124.261 55.6989 123.532 54.6517 122.847 53.5889C108.694 58.1074 93.8157 60.4159 78.5615 60.4159C63.0018 60.4159 47.0249 58.1329 29.8353 53.4844L19.9832 81.6984C42.6444 83.6671 68.1428 100.077 76.2491 112.69C84.2423 100.17 110.002 83.3534 133.125 81.6369Z" fill="url(#paint0_linear)"/>
<path d="M32.3816 49.2401C48.6617 53.542 63.8209 55.6657 78.5615 55.6657C92.9066 55.6657 106.898 53.5541 120.234 49.4277C105.365 23.6752 114.252 4.26845 114.641 3.42L116.28 0L36.2664 0.02375L37.8814 3.41998C38.2877 4.25524 47.1077 23.59 32.3816 49.2401ZM75.7389 36.8601C77.1876 36.8601 78.3751 38.0476 78.3751 39.4963C78.3751 40.945 77.1876 42.1325 75.7389 42.1325C74.2664 42.1325 73.1027 40.945 73.1027 39.4963C73.1027 38.0476 74.2664 36.8601 75.7389 36.8601Z" fill="url(#paint1_linear)"/>
<path d="M18.8556 86.3416C17.1936 102.308 18.8585 120.174 23.8926 139.46L24.3676 141.218H73.8927V118.742C71.6277 109.196 43.9692 88.0879 18.8556 86.3416Z" fill="url(#paint2_linear)"/>
<path d="M78.6424 118.678V141.217H128.179L128.654 139.46C133.665 120.173 135.351 102.327 133.69 86.3403C108.992 88.0592 81.0424 108.797 78.6424 118.678Z" fill="url(#paint3_linear)"/>
<path d="M149.625 15.913H134.33V12.1367C134.33 11.163 133.712 10.2605 132.786 9.92797C131.884 9.57179 130.815 9.83302 130.174 10.5692L118.322 24.1068C117.562 24.9855 117.539 26.3155 118.322 27.218L130.15 41.0406C130.601 41.5868 131.266 41.8718 131.955 41.8718C132.24 41.8718 132.501 41.8242 132.786 41.7293C133.712 41.3729 134.33 40.4942 134.33 39.4968V35.4118H149.625C150.955 35.4118 152 34.3668 152 33.0368V18.288C152 16.9818 150.955 15.913 149.625 15.913Z" fill="url(#paint4_linear)"/>
<path d="M19.2376 41.7293C19.4988 41.8242 19.7838 41.8718 20.045 41.8718C20.7339 41.8718 21.3988 41.5868 21.85 41.0406L33.7013 27.218C34.4613 26.3155 34.4613 24.9855 33.6775 24.1068L21.85 10.5693C21.1851 9.83301 20.1401 9.57181 19.2138 9.92796C18.2875 10.2605 17.67 11.163 17.67 12.1367V15.913H2.375C1.06877 15.913 0 16.9818 0 18.288V33.0368C0 34.3668 1.06877 35.4118 2.375 35.4118H17.67V39.4968C17.67 40.4942 18.2875 41.373 19.2376 41.7293Z" fill="url(#paint5_linear)"/>
<defs>
<linearGradient id="paint0_linear" x1="19.9832" y1="112.69" x2="140.086" y2="89.4361" gradientUnits="userSpaceOnUse">
<stop stop-color="#2192BF"/>
<stop offset="1" stop-color="#1AD2D6"/>
</linearGradient>
<linearGradient id="paint1_linear" x1="32.3816" y1="55.6657" x2="126.723" y2="40.5802" gradientUnits="userSpaceOnUse">
<stop stop-color="#2192BF"/>
<stop offset="1" stop-color="#1AD2D6"/>
</linearGradient>
<linearGradient id="paint2_linear" x1="18.2335" y1="141.218" x2="78.8915" y2="134.984" gradientUnits="userSpaceOnUse">
<stop stop-color="#2192BF"/>
<stop offset="1" stop-color="#1AD2D6"/>
</linearGradient>
<linearGradient id="paint3_linear" x1="78.6424" y1="141.217" x2="139.308" y2="134.982" gradientUnits="userSpaceOnUse">
<stop stop-color="#2192BF"/>
<stop offset="1" stop-color="#1AD2D6"/>
</linearGradient>
<linearGradient id="paint4_linear" x1="117.743" y1="41.8718" x2="155.035" y2="37.8398" gradientUnits="userSpaceOnUse">
<stop stop-color="#2192BF"/>
<stop offset="1" stop-color="#1AD2D6"/>
</linearGradient>
<linearGradient id="paint5_linear" x1="5.98248e-07" y1="41.8718" x2="37.304" y2="37.8371" gradientUnits="userSpaceOnUse">
<stop stop-color="#2192BF"/>
<stop offset="1" stop-color="#1AD2D6"/>
</linearGradient>
</defs>
</svg>
