<svg width="102" height="202" viewBox="0 0 102 202" fill="none" xmlns="http://www.w3.org/2000/svg">
<path d="M73.8982 48.2056C72.2986 46.3779 70.8645 44.916 69.299 43.7246C67.0747 42.0516 64.0912 42.1072 61.9513 43.6604C62.269 46.7026 61.8801 49.7448 60.8063 52.5884C61.1124 52.961 61.4627 53.3081 61.8654 53.6112C62.1237 53.796 62.8635 54.4562 63.6854 55.343C64.5188 56.2352 65.4836 57.3763 66.4415 58.6395C68.3673 61.1591 70.2723 64.2245 71.3353 66.7781C72.0443 68.4264 72.3381 69.8536 72.3327 70.4744C72.1587 70.5293 71.9121 70.5927 71.5835 70.6453C71.3091 70.6893 71.0068 70.7125 70.6852 70.7125C69.2193 70.7365 67.0863 70.1482 65.3715 69.3897C63.6792 68.6645 62.3803 67.8474 62.2064 67.7329L62.1987 67.7275L62.1979 67.7283C61.0073 66.9304 59.6389 66.6073 58.3122 66.7039C57.938 66.6305 57.5522 66.5903 57.1572 66.5903H27.2878C26.9152 66.5903 26.551 66.6289 26.1977 66.6946C24.9306 66.6421 23.6372 66.9691 22.5038 67.7291L22.503 67.7283L22.4953 67.7337C22.3213 67.8474 21.0233 68.6653 19.3301 69.3905C17.6154 70.1482 15.4831 70.7373 14.0165 70.7133C13.6949 70.7133 13.3926 70.6901 13.1181 70.646C12.7896 70.5942 12.5429 70.5308 12.369 70.4752C12.3636 69.8536 12.6574 68.4272 13.3663 66.7789C14.4294 64.2245 16.3343 61.1591 18.2601 58.6403C19.218 57.377 20.1829 56.2367 21.0163 55.3437C21.8381 54.457 22.578 53.7967 22.8362 53.612C23.2452 53.3043 23.5993 52.9502 23.9093 52.5706C23.6155 51.7805 23.3534 50.9726 23.1578 50.1322C22.6499 47.9528 22.5332 45.7726 22.7504 43.6612C20.6104 42.108 17.6262 42.0523 15.4027 43.7254C13.8371 44.9167 12.403 46.3787 10.8034 48.2063C8.44157 50.9323 5.91734 54.375 3.84462 58.1246C1.81674 61.9106 0.0710397 65.8674 0.000686082 70.5216C-0.026373 73.1123 0.743651 76.214 2.90142 78.6439C5.04372 81.0831 8.07898 82.3866 11.1877 82.8651C12.1541 83.0159 13.0942 83.0832 14.0165 83.0832C16.7479 83.0654 19.1972 82.5358 21.3132 81.8493V110.799V125.441V191.929C21.3132 197.208 25.5939 201.487 30.8712 201.487C36.1501 201.487 40.4308 197.208 40.4308 191.929V131.415H44.0142V191.929C44.0142 197.208 48.2949 201.487 53.5722 201.487C58.8511 201.487 63.1318 197.208 63.1318 191.929V125.441V110.799V81.7596C65.3066 82.4871 67.8393 83.0638 70.6844 83.0824C71.6067 83.0824 72.5468 83.0151 73.5132 82.8644C76.6219 82.3858 79.6572 81.0823 81.7995 78.6432C83.9572 76.214 84.7273 73.1115 84.7002 70.5208C84.6298 65.8659 82.8841 61.9091 80.8563 58.1239C78.7843 54.3743 76.2601 50.9323 73.8982 48.2056Z" fill="url(#paint0_linear)"/>
<path d="M24.9282 50.7811C27.6156 59.9588 37.0391 65.5453 46.4672 63.3497C53.072 61.8127 57.9828 56.8508 59.7726 50.7803C60.3029 48.9805 60.5619 47.0841 60.5055 45.1497C60.4707 43.9568 60.3184 42.75 60.0377 41.5439C57.7625 31.7764 47.9988 25.7012 38.2305 27.9773C30.0176 29.8892 24.4172 37.0962 24.1945 45.1497C24.1528 46.6735 24.3012 48.2267 24.663 49.7807C24.7419 50.1193 24.8316 50.4518 24.9282 50.7811Z" fill="url(#paint1_linear)"/>
<path d="M74.2691 29.4379L90.6174 18.0955L83.7916 14.6559L94.7753 4.77622L92.3941 2.47852L79.8912 15.3524L86.2408 18.0182L73.7527 28.8897L74.2691 29.4379Z" fill="url(#paint2_linear)"/>
<path d="M101.218 22.7517L86.6258 26.9459L90.1682 31.5722L76.4299 34.3044L76.5799 34.9252L93.3496 33.4686L89.7832 28.0738L102 25.4367L101.218 22.7517Z" fill="url(#paint3_linear)"/>
<path d="M71.4637 0L66.6835 14.1643L72.4139 13.8898L66.9294 26.5434L67.5146 26.7707L75.7336 12.3776L69.3662 12.24L74.0776 0.872075L71.4637 0Z" fill="url(#paint4_linear)"/>
<defs>
<linearGradient id="paint0_linear" x1="1.47869e-06" y1="201.487" x2="93.0118" y2="196.467" gradientUnits="userSpaceOnUse">
<stop stop-color="#2192BF"/>
<stop offset="1" stop-color="#1AD2D6"/>
</linearGradient>
<linearGradient id="paint1_linear" x1="24.1877" y1="63.8268" x2="63.7871" y2="59.8148" gradientUnits="userSpaceOnUse">
<stop stop-color="#2192BF"/>
<stop offset="1" stop-color="#1AD2D6"/>
</linearGradient>
<linearGradient id="paint2_linear" x1="73.7527" y1="29.4379" x2="96.7616" y2="27.62" gradientUnits="userSpaceOnUse">
<stop stop-color="#2192BF"/>
<stop offset="1" stop-color="#1AD2D6"/>
</linearGradient>
<linearGradient id="paint3_linear" x1="76.4299" y1="34.9252" x2="103.371" y2="29.1918" gradientUnits="userSpaceOnUse">
<stop stop-color="#2192BF"/>
<stop offset="1" stop-color="#1AD2D6"/>
</linearGradient>
<linearGradient id="paint4_linear" x1="66.6835" y1="26.7707" x2="76.6389" y2="26.4297" gradientUnits="userSpaceOnUse">
<stop stop-color="#2192BF"/>
<stop offset="1" stop-color="#1AD2D6"/>
</linearGradient>
</defs>
</svg>
