<svg width="25" height="15" viewBox="0 0 25 15" fill="none" xmlns="http://www.w3.org/2000/svg">
<path d="M2.9375 15L12.5 5.72874L22.0625 15L25 12.1457L12.5 0L0 12.1457L2.9375 15Z" fill="url(#paint0_linear)"/>
<defs>
<linearGradient id="paint0_linear" x1="4.36444e-07" y1="15" x2="26.7696" y2="10.4795" gradientUnits="userSpaceOnUse">
<stop stop-color="#2192BF"/>
<stop offset="1" stop-color="#1AD2D6"/>
</linearGradient>
</defs>
</svg>
